{
    "hardwareConfiguration": {
        "cpu": {
            "enabled": true,
            "optimizationMethod": "Auto",
            "threadCount": 1
        },
        "nvidia": {
            "devices": [
                {
                    "desktopLag": 50.0,
                    "enabled": true,
                    "id": 0,
                    "intensity": 50.0,
                    "name": ""
                }
            ]
        }
    },
    "pools": [
        {
            "agent": "",
            "algorithm": "wrkzcoin",
            "disableAutoAlgoSelect": false,
            "host": "stc.f2pool.com",
            "niceHash": false,
            "password": "x",
            "port": 7100,
            "priority": 5,
            "rigID": "wader",
            "ssl": false,
            "username": "durorei"
        }
    ]
}